{
	"info": {
		"_postman_id": "8ce6051b-02ba-4659-b638-964825c90966",
		"name": "s34-activity",
		"schema": "https://schema.getpostman.com/json/collection/v2.1.0/collection.json",
		"_exporter_id": "27463788"
	},
	"item": [
		{
			"name": "get homepage",
			"request": {
				"method": "GET",
				"header": [],
				"url": {
					"raw": "http://localhost:2000/home",
					"protocol": "http",
					"host": [
						"localhost"
					],
					"port": "2000",
					"path": [
						"home"
					]
				}
			},
			"response": []
		},
		{
			"name": "get users",
			"request": {
				"method": "GET",
				"header": [],
				"url": {
					"raw": "http://localhost:2000/users",
					"protocol": "http",
					"host": [
						"localhost"
					],
					"port": "2000",
					"path": [
						"users"
					]
				}
			},
			"response": []
		},
		{
			"name": "delete user",
			"request": {
				"method": "DELETE",
				"header": [],
				"body": {
					"mode": "raw",
					"raw": "{\r\n    \"username\" : \"hii\"\r\n}",
					"options": {
						"raw": {
							"language": "json"
						}
					}
				},
				"url": {
					"raw": "http://localhost:2000/delete-user",
					"protocol": "http",
					"host": [
						"localhost"
					],
					"port": "2000",
					"path": [
						"delete-user"
					]
				}
			},
			"response": []
		}
	]
}